<svg width="78" height="78" viewBox="0 0 78 78" fill="none" xmlns="http://www.w3.org/2000/svg">
<g clip-path="url(#clip0)">
<path d="M36.9294 6.10156L1.56537 41.7573C0.3609 42.9618 0.3609 44.9155 1.56537 46.1212L26.5407 71.0966C27.7452 72.3011 29.699 72.3011 30.9047 71.0966L65.3388 35.7313V6.10156H36.9294ZM53.1355 23.1863C50.4398 23.1863 48.2542 21.0006 48.2542 18.3049C48.2542 15.6092 50.4398 13.4236 53.1355 13.4236C55.8312 13.4236 58.0168 15.6092 58.0168 18.3049C58.0168 21.0006 55.8312 23.1863 53.1355 23.1863Z" fill="#46B29D"/>
<path d="M53.1355 8.54224C47.7441 8.54224 43.3728 12.9135 43.3728 18.3049C43.3728 23.6964 47.7441 28.0676 53.1355 28.0676C58.5269 28.0676 62.8982 23.6964 62.8982 18.3049C62.8982 12.9135 58.5269 8.54224 53.1355 8.54224ZM53.1355 23.1863C50.4398 23.1863 48.2542 21.0006 48.2542 18.3049C48.2542 15.6092 50.4398 13.4236 53.1355 13.4236C55.8312 13.4236 58.0168 15.6092 58.0168 18.3049C58.0168 21.0006 55.8312 23.1863 53.1355 23.1863Z" fill="#28685C"/>
<path d="M53.1355 19.5253C52.8231 19.5253 52.5107 19.4057 52.2727 19.1677C51.7956 18.6906 51.7956 17.9193 52.2727 17.4422L69.3574 0.357497C69.8346 -0.119654 70.6058 -0.119654 71.083 0.357497C71.5601 0.834648 71.5601 1.6059 71.083 2.08305L53.9983 19.1677C53.7603 19.4057 53.4479 19.5253 53.1355 19.5253Z" fill="#FDD7AD"/>
<path d="M27.5695 54.1816C25.1642 54.1816 22.8566 53.2334 21.1408 51.5176C17.5957 47.9725 17.5957 42.2028 21.1408 38.6577C21.6179 38.1805 22.3892 38.1805 22.8663 38.6577C23.3435 39.1348 23.3435 39.9061 22.8663 40.3832C20.2731 42.9777 20.2731 47.1976 22.8663 49.792C24.2538 51.1795 26.1734 51.8825 28.1284 51.7177C29.112 51.6359 30.0065 51.1551 30.646 50.3668C31.3208 49.5333 31.632 48.446 31.499 47.3806L29.8808 34.439C29.666 32.7171 30.1676 30.9574 31.2598 29.6113C32.3227 28.3019 33.8176 27.5038 35.4699 27.3671C38.1461 27.1463 40.7638 28.103 42.6602 29.9982C46.2052 33.5433 46.2052 39.313 42.6602 42.8581C42.183 43.3352 41.4117 43.3352 40.9346 42.8581C40.4574 42.3809 40.4574 41.6097 40.9346 41.1325C43.5278 38.5381 43.5278 34.3182 40.9346 31.7237C39.5471 30.3374 37.636 29.6321 35.6725 29.7981C34.6889 29.8798 33.7944 30.3606 33.155 31.149C32.4801 31.9812 32.1689 33.0698 32.302 34.1351L33.9201 47.0768C34.1349 48.7974 33.6321 50.5584 32.5411 51.9032C31.4782 53.2138 29.9833 54.0119 28.331 54.1486C28.0772 54.1718 27.8233 54.1816 27.5695 54.1816Z" fill="white"/>
<path d="M20.2267 53.6557C19.9143 53.6557 19.6019 53.5361 19.364 53.2981C18.8868 52.8209 18.8868 52.0497 19.364 51.5725L42.3282 28.6083C42.8054 28.1311 43.5766 28.1311 44.0538 28.6083C44.5309 29.0854 44.5309 29.8567 44.0538 30.3338L21.0895 53.2981C20.8503 53.5361 20.5391 53.6557 20.2267 53.6557Z" fill="white"/>
</g>
<defs>
<clipPath id="clip0">
<rect width="78" height="78" fill="white"/>
</clipPath>
</defs>
</svg>
